solid OpenSCAD_Model
  facet normal 1 -0 0
    outer loop
      vertex 10 0 30
      vertex 10 5 0
      vertex 10 5 30
    endloop
  endfacet
  facet normal 1 0 0
    outer loop
      vertex 10 5 0
      vertex 10 0 30
      vertex 10 0 0
    endloop
  endfacet
  facet normal -0 0 1
    outer loop
      vertex 0 5 30
      vertex 10 0 30
      vertex 10 5 30
    endloop
  endfacet
  facet normal 0 0 1
    outer loop
      vertex 10 0 30
      vertex 0 5 30
      vertex 0 0 30
    endloop
  endfacet
  facet normal 0 0 -1
    outer loop
      vertex 0 0 0
      vertex 10 5 0
      vertex 10 0 0
    endloop
  endfacet
  facet normal -0 0 -1
    outer loop
      vertex 10 5 0
      vertex 0 0 0
      vertex 0 5 0
    endloop
  endfacet
  facet normal -1 0 0
    outer loop
      vertex 0 0 0
      vertex 0 5 30
      vertex 0 5 0
    endloop
  endfacet
  facet normal -1 -0 0
    outer loop
      vertex 0 5 30
      vertex 0 0 0
      vertex 0 0 30
    endloop
  endfacet
  facet normal 0 1 -0
    outer loop
      vertex 10 5 0
      vertex 0 5 30
      vertex 10 5 30
    endloop
  endfacet
  facet normal 0 1 0
    outer loop
      vertex 0 5 30
      vertex 10 5 0
      vertex 0 5 0
    endloop
  endfacet
  facet normal 0 -1 0
    outer loop
      vertex 0 0 30
      vertex 1 0 29
      vertex 10 0 30
    endloop
  endfacet
  facet normal 0 -1 0
    outer loop
      vertex 0 0 30
      vertex 1 0 1
      vertex 1 0 29
    endloop
  endfacet
  facet normal 0 -1 -0
    outer loop
      vertex 1 0 1
      vertex 0 0 0
      vertex 9 0 1
    endloop
  endfacet
  facet normal 0 -1 0
    outer loop
      vertex 0 0 0
      vertex 1 0 1
      vertex 0 0 30
    endloop
  endfacet
  facet normal 0 -1 0
    outer loop
      vertex 9 0 29
      vertex 10 0 30
      vertex 1 0 29
    endloop
  endfacet
  facet normal 0 -1 0
    outer loop
      vertex 9 0 1
      vertex 10 0 30
      vertex 9 0 29
    endloop
  endfacet
  facet normal 0 -1 0
    outer loop
      vertex 9 0 1
      vertex 10 0 0
      vertex 10 0 30
    endloop
  endfacet
  facet normal 0 -1 0
    outer loop
      vertex 10 0 0
      vertex 9 0 1
      vertex 0 0 0
    endloop
  endfacet
  facet normal -1 0 0
    outer loop
      vertex 9 0 1
      vertex 9 3.5 29
      vertex 9 3.5 1
    endloop
  endfacet
  facet normal -1 -0 0
    outer loop
      vertex 9 3.5 29
      vertex 9 0 1
      vertex 9 0 29
    endloop
  endfacet
  facet normal 0 0 -1
    outer loop
      vertex 1 0 29
      vertex 9 3.5 29
      vertex 9 0 29
    endloop
  endfacet
  facet normal -0 0 -1
    outer loop
      vertex 9 3.5 29
      vertex 1 0 29
      vertex 1 3.5 29
    endloop
  endfacet
  facet normal -0 0 1
    outer loop
      vertex 1 3.5 1
      vertex 9 0 1
      vertex 9 3.5 1
    endloop
  endfacet
  facet normal 0 0 1
    outer loop
      vertex 9 0 1
      vertex 1 3.5 1
      vertex 1 0 1
    endloop
  endfacet
  facet normal 1 -0 0
    outer loop
      vertex 1 0 29
      vertex 1 3.5 1
      vertex 1 3.5 29
    endloop
  endfacet
  facet normal 1 0 0
    outer loop
      vertex 1 3.5 1
      vertex 1 0 29
      vertex 1 0 1
    endloop
  endfacet
  facet normal 0 -1 0
    outer loop
      vertex 1 3.5 1
      vertex 9 3.5 29
      vertex 1 3.5 29
    endloop
  endfacet
  facet normal 0 -1 -0
    outer loop
      vertex 9 3.5 29
      vertex 1 3.5 1
      vertex 9 3.5 1
    endloop
  endfacet
endsolid OpenSCAD_Model
